name,department,salary,emp_cnt,sal_avg,diff
Дарья,hr,70,2,74,-5
Борис,hr,78,2,74,5
Елена,it,84,5,100.4,-16
Ксения,it,90,5,100.4,-10
Леонид,it,104,5,100.4,4
Марина,it,104,5,100.4,4
Иван,it,120,5,100.4,20
Вероника,sales,96,3,97.3,-1
Григорий,sales,96,3,97.3,-1
Анна,sales,100,3,97.3,3
