activity_id,start_date_local,type,distance,moving_time,elapsed_time,total_elevation_gain,sport_type,start_date_utc,achievement_count,kudos_count,comment_count,athlete_count,photo_count,average_speed,max_speed,user_id
9548409,2022-03-16 12:12:54.000000,Run,2764,955,1009,38.5,Run,2022-03-16 16:12:54.000000,0,0,0,2,0,2.739,4.77,29
3911714,2022-05-21 07:27:40.000000,Run,4313.6,2182,2426,55,Run,2022-05-21 11:27:40.000000,4,0,0,1,0,1.977,3.874,16
9184746,2022-05-22 07:13:30.000000,Run,4587.6,2263,2478,56.6,Run,2022-05-22 11:13:30.000000,5,0,0,1,0,2.027,3.557,6
3588374,2022-05-28 11:11:38.000000,Run,6067.2,3334,3555,88.2,Run,2022-05-28 15:11:38.000000,3,0,0,1,0,1.82,3.172,2
3317150,2022-06-12 09:20:44.000000,Run,7857.2,3900,4113,116.6,Run,2022-06-12 13:20:44.000000,6,0,0,1,0,2.015,3.326,26
9849458,2022-06-18 09:43:07.000000,Run,10564.2,5277,5681,150,Run,2022-06-18 13:43:07.000000,3,0,0,1,0,2.002,3.502,3
7424037,2022-06-25 09:04:56.000000,Run,7321.8,4205,4439,6.2,Run,2022-06-25 13:04:56.000000,7,0,0,1,0,1.741,4.65,20
1613559,2022-07-03 08:31:25.000000,Run,10300.5,4915,5051,0,Run,2022-07-03 12:31:25.000000,4,0,0,1,0,2.096,5.975,31
1441722,2022-07-03 10:10:13.000000,Run,3457.6,1880,8503,7.2,Run,2022-07-03 14:10:13.000000,4,0,0,1,0,1.839,9.919,30
391978,2022-07-10 08:53:17.000000,Run,10250.2,4645,5119,0,Run,2022-07-10 12:53:17.000000,11,0,0,1,0,2.207,4.472,10
713623,2022-07-10 10:40:05.000000,Run,1986.7,1328,1657,2.1,Run,2022-07-10 14:40:05.000000,2,0,0,1,0,1.496,5.508,13
4073424,2022-07-18 08:38:45.000000,Run,5376.1,2906,3058,0,Run,2022-07-18 12:38:45.000000,6,0,0,1,0,1.85,4.018,29
121171,2022-07-24 08:47:17.000000,Run,9517.1,5459,5749,5.2,Run,2022-07-24 12:47:17.000000,4,0,0,1,0,1.743,4.456,6
7554090,2022-07-31 08:24:41.000000,Run,10011.2,5174,5370,0,Run,2022-07-31 12:24:41.000000,11,0,0,1,0,1.935,4.206,35
1861766,2022-08-03 07:44:12.000000,Run,5247.3,2199,2237,0,Run,2022-08-03 11:44:12.000000,3,0,0,1,0,2.386,4.586,7
8745157,2022-08-07 07:02:21.000000,Run,10386.5,5172,5213,5.5,Run,2022-08-07 11:02:21.000000,4,0,0,1,0,2.008,5.574,34
1824738,2022-08-20 08:28:52.000000,Run,12983.3,6724,6794,65.3,Run,2022-08-20 12:28:52.000000,1,0,0,1,0,1.931,6.703,18
6576981,2022-08-24 08:32:16.000000,Run,5058.2,2007,2044,0,Run,2022-08-24 12:32:16.000000,5,0,0,1,0,2.52,5.738,12
3555519,2022-08-27 08:22:34.000000,Run,10287.1,4768,4768,91.3,Run,2022-08-27 12:22:34.000000,3,0,0,27,0,2.158,3.084,5
5786585,2022-08-30 12:59:41.000000,Workout,0,4433,4433,0,Workout,2022-08-30 12:59:41.000000,0,0,0,1,0,0,0,2
5840174,2022-08-31 11:47:53.000000,Workout,0,5931,5931,0,Workout,2022-08-31 11:47:53.000000,0,0,0,1,0,0,0,7
9068410,2022-08-31 09:17:10.000000,Run,517.2,85,362,10.2,Run,2022-08-31 13:17:10.000000,1,0,0,1,0,6.085,18.281,30
797771,2022-09-01 11:42:46.000000,Workout,0,8646,8646,0,Workout,2022-09-01 11:42:46.000000,0,0,0,1,0,0,0,34
9757245,2022-09-02 11:54:10.000000,Workout,0,5181,5181,0,Workout,2022-09-02 11:54:10.000000,0,0,0,1,0,0,0,21
6829593,2022-09-07 07:03:40.000000,Run,10255.8,4421,4664,124.7,Run,2022-09-07 11:03:40.000000,4,0,0,1,0,2.32,3.8,27
8722736,2022-09-18 07:13:06.000000,Run,10352.6,4138,4471,88.1,Run,2022-09-18 11:13:06.000000,15,0,0,1,0,2.502,4.066,15
9132809,2022-10-07 11:57:31.000000,Workout,0,8293,8293,0,Workout,2022-10-07 11:57:31.000000,0,0,0,1,0,0,0,32
3907424,2022-10-09 07:52:32.000000,Run,5145,2282,2593,64,Run,2022-10-09 11:52:32.000000,0,0,0,1,0,2.255,3.244,2
3055952,2022-10-13 11:48:24.000000,Workout,0,8575,8575,0,Workout,2022-10-13 11:48:24.000000,0,0,0,1,0,0,0,11
8597467,2022-10-15 08:03:03.000000,Run,10334.2,3865,3888,100.4,Run,2022-10-15 12:03:03.000000,7,0,0,17,0,2.658,5.218,26
6459258,2022-10-15 11:04:34.000000,Walk,1053.6,855,1699,6.6,Walk,2022-10-15 15:04:34.000000,0,0,0,1,0,1.232,5.515,20
2960513,2022-11-13 06:59:20.000000,Run,6934.9,2965,3021,76.6,Run,2022-11-13 11:59:20.000000,4,0,0,1,0,2.339,3.5,24
1195217,2022-11-13 07:54:52.000000,Walk,570.7,255,255,0,Walk,2022-11-13 12:54:52.000000,0,0,0,1,0,2.238,3.73,4
5207529,2022-11-23 06:31:44.000000,Run,13194.5,5838,5905,161.7,Run,2022-11-23 11:31:44.000000,5,1,0,1,0,2.26,3.506,25
2825113,2022-12-03 15:41:28.000000,Run,13223.8,5828,6081,118.6,Run,2022-12-03 20:41:28.000000,1,1,0,1,0,2.269,3.56,31
5856798,2022-12-21 14:20:42.000000,Run,21792.6,9275,9323,151.1,Run,2022-12-21 19:20:42.000000,3,0,0,1,0,2.35,4.442,28
5961527,2023-02-12 07:06:05.000000,Run,10207.3,4815,4937,96.2,Run,2023-02-12 12:06:05.000000,0,0,0,1,0,2.12,4.023,6
8828106,2023-02-19 16:51:04.000000,Run,6241,4411,4453,60.9,Run,2023-02-19 21:51:04.000000,0,0,0,1,0,1.415,7.522,32
4134278,2023-03-02 06:38:12.000000,Run,12240.6,5376,5386,147,Run,2023-03-02 11:38:12.000000,2,0,0,1,0,2.277,3.882,17
252093,2023-03-05 07:07:47.000000,Run,21479,9617,10154,100.9,Run,2023-03-05 12:07:47.000000,4,0,0,1,0,2.233,3.304,35
9704725,2023-03-19 09:29:19.000000,Run,22201.9,9200,9241,157.8,Run,2023-03-19 13:29:19.000000,7,0,0,1,0,2.413,7.514,35
8479167,2023-04-09 09:15:51.000000,Run,4604.7,2257,3496,20.8,Run,2023-04-09 13:15:51.000000,4,0,0,2,0,2.04,6.336,14
6172576,2023-04-16 09:10:51.000000,Run,5230.5,1824,3695,22.4,Run,2023-04-16 13:10:51.000000,4,0,0,1,0,2.868,4.07,33
5930335,2023-04-22 08:39:51.000000,Run,2520.5,1124,2292,0,Run,2023-04-22 12:39:51.000000,0,0,0,1,0,2.242,4.308,34
7021258,2023-04-26 17:24:37.000000,Run,2342.1,884,2042,39,Run,2023-04-26 21:24:37.000000,0,0,0,1,0,2.649,3.948,23
1761537,2023-05-07 17:55:57.000000,Run,10113.4,4197,4795,79.7,Run,2023-05-07 21:55:57.000000,4,1,0,1,0,2.41,3.988,8
8156258,2023-05-12 21:50:00.000000,Run,5149.9,1880,1880,0,Run,2023-05-12 21:50:00.000000,0,1,0,1,0,2.739,0,6
1740590,2023-05-14 07:56:01.000000,Run,2406.8,982,33260,17,Run,2023-05-14 11:56:01.000000,0,1,0,1,0,2.451,3.346,29
5636730,2023-05-14 17:10:38.000000,Run,3374.6,1350,1490,38.5,Run,2023-05-14 21:10:38.000000,1,1,0,1,0,2.5,3.356,22
6208117,2023-05-28 07:02:45.000000,Run,7115.1,2831,3017,89.2,Run,2023-05-28 11:02:45.000000,9,1,0,1,0,2.513,4.33,8
6314693,2023-06-11 14:01:45.000000,Run,5341.4,1932,2354,0,Run,2023-06-11 18:01:45.000000,5,1,0,1,0,2.765,4.512,24
5621391,2023-06-18 08:39:23.000000,Run,10513.1,4087,4101,2.4,Run,2023-06-18 12:39:23.000000,16,2,0,1,0,2.572,4.868,1
179171,2023-06-23 18:39:04.000000,Run,2222.6,811,951,2.9,Run,2023-06-23 22:39:04.000000,0,0,0,1,0,2.741,5.238,33
5315986,2023-06-25 19:18:27.000000,Run,11824.4,4586,4953,3.2,Run,2023-06-25 23:18:27.000000,10,2,0,1,0,2.578,6.318,12
2535932,2023-06-29 18:35:40.000000,Run,3080,2358,3471,2.1,Run,2023-06-29 22:35:40.000000,0,2,0,1,0,1.306,3.335,13
1169292,2023-07-05 17:34:26.000000,Run,2981.8,938,1018,0,Run,2023-07-05 21:34:26.000000,5,2,0,1,0,3.179,7.2,9
9478205,2023-07-07 18:17:30.000000,Run,5474.7,2077,2253,11.6,Run,2023-07-07 22:17:30.000000,3,1,0,1,0,2.636,6.186,11
6778170,2023-07-09 17:20:57.000000,Run,7531.1,3293,4352,5,Run,2023-07-09 21:20:57.000000,3,1,0,1,0,2.287,5.102,30
8418700,2023-07-12 09:11:57.000000,Run,7523.6,3118,3462,3.1,Run,2023-07-12 13:11:57.000000,5,2,0,1,0,2.413,8.062,17
8210100,2023-07-13 18:54:20.000000,Run,5436.7,2074,2090,0,Run,2023-07-13 22:54:20.000000,3,2,0,1,0,2.621,8.796,35
9032532,2023-07-14 18:17:07.000000,Run,3294.3,1310,1313,2.6,Run,2023-07-14 22:17:07.000000,0,1,0,1,0,2.515,4.956,32
8003552,2023-07-17 18:17:37.000000,Run,6990.6,2810,2821,3,Run,2023-07-17 22:17:37.000000,1,2,0,1,0,2.488,5.262,28
9736719,2023-07-23 07:16:58.000000,Run,14991.3,6601,6627,3.1,Run,2023-07-23 11:16:58.000000,5,2,1,1,0,2.271,4.601,23
6496523,2023-07-25 19:33:05.000000,Run,5076.4,1860,1860,0,Run,2023-07-25 23:33:05.000000,5,2,1,1,0,2.729,5.142,13
8861498,2023-07-27 12:00:00.000000,Run,3130,1200,1200,0,Run,2023-07-27 12:00:00.000000,0,2,0,1,0,2.608,0,1
4480618,2023-07-31 19:10:00.000000,Run,5311.5,1997,2013,2.4,Run,2023-07-31 23:10:00.000000,1,1,0,1,0,2.66,5.012,12
1346009,2023-08-02 18:36:39.000000,Run,5049.4,1929,1929,0,Run,2023-08-02 22:36:39.000000,2,2,0,1,0,2.618,4.05,4
8712658,2023-08-06 07:28:11.000000,Run,21334,10059,10507,2.2,Run,2023-08-06 11:28:11.000000,11,1,0,1,0,2.121,13.091,18
2029236,2023-08-17 18:38:25.000000,Run,5044.5,1778,1778,0,Run,2023-08-17 22:38:25.000000,3,2,0,1,0,2.837,5.556,35
2376662,2023-08-18 17:45:19.000000,Run,3010.3,1014,1017,0,Run,2023-08-18 21:45:19.000000,2,1,0,1,0,2.969,9.524,5
7862482,2023-08-31 18:51:40.000000,Run,1611.9,566,573,0,Run,2023-08-31 22:51:40.000000,0,0,0,1,0,2.848,4.794,22
1809709,2023-09-03 06:40:50.000000,Run,16190.2,6891,7121,0,Run,2023-09-03 10:40:50.000000,9,0,0,1,0,2.349,4.817,10
6189260,2023-09-05 19:19:51.000000,Run,5043.5,1883,1883,7.3,Run,2023-09-05 23:19:51.000000,1,0,0,1,0,2.678,6.132,19
5057634,2023-09-07 19:41:00.000000,Run,424.6,182,217,0,Run,2023-09-07 23:41:00.000000,0,0,0,1,0,2.333,8.234,20
3126657,2023-09-10 19:01:35.000000,Run,22895.4,10264,10523,7,Run,2023-09-10 23:01:35.000000,9,0,0,1,0,2.231,10.566,31
360055,2023-09-12 19:33:27.000000,Run,2976,1118,1121,3.9,Run,2023-09-12 23:33:27.000000,1,0,0,1,0,2.662,6.034,4
7666856,2023-09-20 18:22:55.000000,Run,3181.3,1259,1259,2.1,Run,2023-09-20 22:22:55.000000,1,1,0,1,0,2.527,8.114,10
5431485,2023-09-26 18:13:37.000000,Run,2948.4,1092,1092,4.4,Run,2023-09-26 22:13:37.000000,0,2,0,1,0,2.7,5.305,18
6570807,2023-09-28 17:54:23.000000,Run,5426.8,2160,2248,6.1,Run,2023-09-28 21:54:23.000000,2,1,0,1,0,2.512,5.666,25
3875958,2023-10-01 18:22:23.000000,Run,5317.7,2116,2116,0,Run,2023-10-01 22:22:23.000000,3,1,0,1,0,2.513,4.234,8
2320714,2023-10-01 19:25:32.000000,Walk,1864.9,1348,1401,4.9,Walk,2023-10-01 23:25:32.000000,0,0,0,1,0,1.383,3.572,11
1796829,2023-10-04 18:33:38.000000,Run,5097.6,1988,2002,2.4,Run,2023-10-04 22:33:38.000000,3,2,0,1,0,2.564,7.114,30
3569430,2023-10-08 18:26:49.000000,Run,10078.3,4228,4727,4.3,Run,2023-10-08 22:26:49.000000,4,2,0,1,0,2.384,4.828,16
7186677,2023-10-10 18:46:43.000000,Run,5266.2,2058,2066,0,Run,2023-10-10 22:46:43.000000,2,1,0,3,0,2.559,3.869,23
6336316,2023-10-10 18:46:51.000000,Run,5087.6,2049,2049,0,Run,2023-10-10 22:46:51.000000,0,1,0,3,0,2.483,4.092,20
4391228,2023-10-12 18:27:56.000000,Run,4093,2730,2735,3.7,Run,2023-10-12 22:27:56.000000,0,0,0,1,0,1.499,5.714,24
5489727,2023-10-15 14:17:29.000000,Workout,0,2564,2564,0,Tennis,2023-10-15 18:17:29.000000,0,1,0,1,0,0,0,5
2825940,2023-10-19 19:22:33.000000,Run,6090.6,2449,2824,7.4,Run,2023-10-19 23:22:33.000000,0,1,0,2,0,2.487,4.175,7
5000146,2023-10-21 11:02:30.000000,Hike,4584.9,6116,7263,290.4,Hike,2023-10-21 15:02:30.000000,0,1,0,3,0,0.75,2.511,15
6970786,2023-10-23 09:11:55.000000,Run,5078.5,1948,1951,46.8,Run,2023-10-23 13:11:55.000000,0,2,0,2,0,2.607,3.814,34
8461857,2023-10-28 08:55:44.000000,Run,17774.7,7174,8239,92.9,Run,2023-10-28 12:55:44.000000,4,3,0,2,0,2.478,4.278,24
3973402,2023-10-29 18:03:13.000000,Run,5033.4,2035,2101,9.1,Run,2023-10-29 22:03:13.000000,3,2,0,1,0,2.473,15.858,21
4963265,2023-10-31 18:13:17.000000,Run,5080.1,1924,2560,56.2,Run,2023-10-31 22:13:17.000000,0,2,0,2,0,2.64,4.313,15
4362741,2023-11-01 18:08:35.000000,Run,10065.4,4326,4672,5.2,Run,2023-11-01 22:08:35.000000,0,2,0,2,0,2.327,3.78,27
9428637,2023-11-02 18:25:15.000000,Run,4900.2,1936,2051,32.3,Run,2023-11-02 22:25:15.000000,0,1,0,1,0,2.531,5.144,24
6252832,2023-11-04 16:20:18.000000,Run,32192.3,14536,15709,5.2,Run,2023-11-04 20:20:18.000000,17,2,0,2,0,2.215,10.26,29
3351805,2023-11-07 17:31:51.000000,Run,5065.6,1974,2012,5,Run,2023-11-07 22:31:51.000000,2,3,0,1,0,2.566,5.092,29
4506470,2023-11-09 17:46:38.000000,Run,10137.9,4027,4037,0,Run,2023-11-09 22:46:38.000000,10,2,0,1,0,2.517,8.032,32
4414300,2023-11-26 09:16:39.000000,Run,6518.5,2545,2735,5,Run,2023-11-26 14:16:39.000000,0,2,0,4,0,2.561,4.738,8
6498462,2023-11-29 17:22:51.000000,Run,6694.7,2913,2983,9.8,Run,2023-11-29 22:22:51.000000,1,2,1,1,0,2.298,4.972,2
8610700,2023-12-01 17:06:05.000000,Run,10108.2,4128,4221,6.3,Run,2023-12-01 22:06:05.000000,4,5,0,1,0,2.449,5.462,4
6676374,2023-12-02 09:41:14.000000,Run,3457.8,1791,2170,3.9,Run,2023-12-02 14:41:14.000000,0,2,0,3,0,1.931,4.522,12
4566912,2023-12-03 09:18:13.000000,Run,17503,7370,7462,68.4,Run,2023-12-03 14:18:13.000000,2,5,0,4,0,2.375,6.778,24
9690066,2023-12-07 17:31:50.000000,Run,1304.4,722,62993,0,Run,2023-12-07 22:31:50.000000,0,0,0,1,0,1.807,4.044,28
4983302,2023-12-09 09:09:19.000000,Run,10879.7,4023,4617,91.4,Run,2023-12-09 14:09:19.000000,4,4,0,3,0,2.704,6.228,9
